Tarea 1
…
##    Min. 1st Qu.  Median    Mean 3rd Qu.    Max. 
##    0.00   15.00   26.00   28.97   41.00  106.00

Pregunta 2

library(lsr)

## Warning: package 'lsr' was built under R version 4.3.2

EdadxYear = data |>
  group_by(year) |>
  summarise(media = mean(edad, na.rm=T))
EdadxYear

## # A tibble: 23 × 2
##     year media
##    <int> <dbl>
##  1  2000  28.4
##  2  2001  28.9
##  3  2002  26.0
##  4  2003  28.6
##  5  2004  28.1
##  6  2005  26.3
##  7  2006  26.8
##  8  2007  28.0
##  9  2008  27.8
## 10  2009  29.6
## # ℹ 13 more rows
…
