Tarea 1
…
Pregunta 2

Se procederá a verificar la edad promedio de los contagiados

Agruparé por las edades por año y calcularé un promedio de las edades
por año

library(lsr)
EdadxYear = data |>
  group_by(year) |>
  summarise(media = mean(edad, na.rm=T))
EdadxYear

## # A tibble: 23 × 2
##     year media
##    <int> <dbl>
##  1  2000  28.4
##  2  2001  28.9
##  3  2002  26.0
##  4  2003  28.6
##  5  2004  28.1
##  6  2005  26.3
##  7  2006  26.8
##  8  2007  28.0
##  9  2008  27.8
## 10  2009  29.6
## # ℹ 13 more rows
…
